-- Merging decision tree log ---
manifest
ADDED from D:\Semestre_2020-2021\DISPOSITIVOS_MOVILES\LIBRO\android-recipes-5ed\android-recipes-5ed-master\Chapter_01_Source_Code\1_01_StylesThemes\src\main\AndroidManifest.xml:1:1-29:12
INJECTED from D:\Semestre_2020-2021\DISPOSITIVOS_MOVILES\LIBRO\android-recipes-5ed\android-recipes-5ed-master\Chapter_01_Source_Code\1_01_StylesThemes\src\main\AndroidManifest.xml:1:1-29:12
INJECTED from D:\Semestre_2020-2021\DISPOSITIVOS_MOVILES\LIBRO\android-recipes-5ed\android-recipes-5ed-master\Chapter_01_Source_Code\1_01_StylesThemes\src\main\AndroidManifest.xml:1:1-29:12
INJECTED from D:\Semestre_2020-2021\DISPOSITIVOS_MOVILES\LIBRO\android-recipes-5ed\android-recipes-5ed-master\Chapter_01_Source_Code\1_01_StylesThemes\src\main\AndroidManifest.xml:1:1-29:12
MERGED from [com.android.support:appcompat-v7:23.4.0] C:\Users\joizn\.gradle\caches\transforms-2\files-2.1\fa1f2605c86b1af1a048c2cd97512538\appcompat-v7-23.4.0\AndroidManifest.xml:17:1-27:12
MERGED from [com.android.support:animated-vector-drawable:23.4.0] C:\Users\joizn\.gradle\caches\transforms-2\files-2.1\d96fdf19e6dc3f48a62a9a96d28cb466\animated-vector-drawable-23.4.0\AndroidManifest.xml:2:1-9:12
MERGED from [com.android.support:support-vector-drawable:23.4.0] C:\Users\joizn\.gradle\caches\transforms-2\files-2.1\e4a8182bf213ec7e4da1d86f73f090ef\support-vector-drawable-23.4.0\AndroidManifest.xml:2:1-9:12
MERGED from [com.android.support:support-v4:23.4.0] C:\Users\joizn\.gradle\caches\transforms-2\files-2.1\0b3b3a4719ee504265b601c9a4df68a1\support-v4-23.4.0\AndroidManifest.xml:17:1-24:12
INJECTED from D:\Semestre_2020-2021\DISPOSITIVOS_MOVILES\LIBRO\android-recipes-5ed\android-recipes-5ed-master\Chapter_01_Source_Code\1_01_StylesThemes\src\main\AndroidManifest.xml:1:1-29:12
INJECTED from D:\Semestre_2020-2021\DISPOSITIVOS_MOVILES\LIBRO\android-recipes-5ed\android-recipes-5ed-master\Chapter_01_Source_Code\1_01_StylesThemes\src\main\AndroidManifest.xml:1:1-29:12
INJECTED from D:\Semestre_2020-2021\DISPOSITIVOS_MOVILES\LIBRO\android-recipes-5ed\android-recipes-5ed-master\Chapter_01_Source_Code\1_01_StylesThemes\src\main\AndroidManifest.xml:1:1-29:12
	package
		ADDED from D:\Semestre_2020-2021\DISPOSITIVOS_MOVILES\LIBRO\android-recipes-5ed\android-recipes-5ed-master\Chapter_01_Source_Code\1_01_StylesThemes\src\main\AndroidManifest.xml:2:11-49
		INJECTED from D:\Semestre_2020-2021\DISPOSITIVOS_MOVILES\LIBRO\android-recipes-5ed\android-recipes-5ed-master\Chapter_01_Source_Code\1_01_StylesThemes\src\main\AndroidManifest.xml
		INJECTED from D:\Semestre_2020-2021\DISPOSITIVOS_MOVILES\LIBRO\android-recipes-5ed\android-recipes-5ed-master\Chapter_01_Source_Code\1_01_StylesThemes\src\main\AndroidManifest.xml
	android:versionName
		ADDED from D:\Semestre_2020-2021\DISPOSITIVOS_MOVILES\LIBRO\android-recipes-5ed\android-recipes-5ed-master\Chapter_01_Source_Code\1_01_StylesThemes\src\main\AndroidManifest.xml:4:11-36
		INJECTED from D:\Semestre_2020-2021\DISPOSITIVOS_MOVILES\LIBRO\android-recipes-5ed\android-recipes-5ed-master\Chapter_01_Source_Code\1_01_StylesThemes\src\main\AndroidManifest.xml
		INJECTED from D:\Semestre_2020-2021\DISPOSITIVOS_MOVILES\LIBRO\android-recipes-5ed\android-recipes-5ed-master\Chapter_01_Source_Code\1_01_StylesThemes\src\main\AndroidManifest.xml
	xmlns:android
		ADDED from D:\Semestre_2020-2021\DISPOSITIVOS_MOVILES\LIBRO\android-recipes-5ed\android-recipes-5ed-master\Chapter_01_Source_Code\1_01_StylesThemes\src\main\AndroidManifest.xml:1:11-69
	android:versionCode
		ADDED from D:\Semestre_2020-2021\DISPOSITIVOS_MOVILES\LIBRO\android-recipes-5ed\android-recipes-5ed-master\Chapter_01_Source_Code\1_01_StylesThemes\src\main\AndroidManifest.xml:3:11-34
		INJECTED from D:\Semestre_2020-2021\DISPOSITIVOS_MOVILES\LIBRO\android-recipes-5ed\android-recipes-5ed-master\Chapter_01_Source_Code\1_01_StylesThemes\src\main\AndroidManifest.xml
		INJECTED from D:\Semestre_2020-2021\DISPOSITIVOS_MOVILES\LIBRO\android-recipes-5ed\android-recipes-5ed-master\Chapter_01_Source_Code\1_01_StylesThemes\src\main\AndroidManifest.xml
application
ADDED from D:\Semestre_2020-2021\DISPOSITIVOS_MOVILES\LIBRO\android-recipes-5ed\android-recipes-5ed-master\Chapter_01_Source_Code\1_01_StylesThemes\src\main\AndroidManifest.xml:6:5-27:19
MERGED from [com.android.support:appcompat-v7:23.4.0] C:\Users\joizn\.gradle\caches\transforms-2\files-2.1\fa1f2605c86b1af1a048c2cd97512538\appcompat-v7-23.4.0\AndroidManifest.xml:25:5-20
MERGED from [com.android.support:appcompat-v7:23.4.0] C:\Users\joizn\.gradle\caches\transforms-2\files-2.1\fa1f2605c86b1af1a048c2cd97512538\appcompat-v7-23.4.0\AndroidManifest.xml:25:5-20
MERGED from [com.android.support:animated-vector-drawable:23.4.0] C:\Users\joizn\.gradle\caches\transforms-2\files-2.1\d96fdf19e6dc3f48a62a9a96d28cb466\animated-vector-drawable-23.4.0\AndroidManifest.xml:7:5-20
MERGED from [com.android.support:animated-vector-drawable:23.4.0] C:\Users\joizn\.gradle\caches\transforms-2\files-2.1\d96fdf19e6dc3f48a62a9a96d28cb466\animated-vector-drawable-23.4.0\AndroidManifest.xml:7:5-20
MERGED from [com.android.support:support-vector-drawable:23.4.0] C:\Users\joizn\.gradle\caches\transforms-2\files-2.1\e4a8182bf213ec7e4da1d86f73f090ef\support-vector-drawable-23.4.0\AndroidManifest.xml:7:5-20
MERGED from [com.android.support:support-vector-drawable:23.4.0] C:\Users\joizn\.gradle\caches\transforms-2\files-2.1\e4a8182bf213ec7e4da1d86f73f090ef\support-vector-drawable-23.4.0\AndroidManifest.xml:7:5-20
MERGED from [com.android.support:support-v4:23.4.0] C:\Users\joizn\.gradle\caches\transforms-2\files-2.1\0b3b3a4719ee504265b601c9a4df68a1\support-v4-23.4.0\AndroidManifest.xml:22:5-20
MERGED from [com.android.support:support-v4:23.4.0] C:\Users\joizn\.gradle\caches\transforms-2\files-2.1\0b3b3a4719ee504265b601c9a4df68a1\support-v4-23.4.0\AndroidManifest.xml:22:5-20
	android:label
		ADDED from D:\Semestre_2020-2021\DISPOSITIVOS_MOVILES\LIBRO\android-recipes-5ed\android-recipes-5ed-master\Chapter_01_Source_Code\1_01_StylesThemes\src\main\AndroidManifest.xml:7:9-41
	android:icon
		ADDED from D:\Semestre_2020-2021\DISPOSITIVOS_MOVILES\LIBRO\android-recipes-5ed\android-recipes-5ed-master\Chapter_01_Source_Code\1_01_StylesThemes\src\main\AndroidManifest.xml:8:9-45
activity#com.androidrecipes.appstyles.ThemedActivity
ADDED from D:\Semestre_2020-2021\DISPOSITIVOS_MOVILES\LIBRO\android-recipes-5ed\android-recipes-5ed-master\Chapter_01_Source_Code\1_01_StylesThemes\src\main\AndroidManifest.xml:9:9-17:20
	android:label
		ADDED from D:\Semestre_2020-2021\DISPOSITIVOS_MOVILES\LIBRO\android-recipes-5ed\android-recipes-5ed-master\Chapter_01_Source_Code\1_01_StylesThemes\src\main\AndroidManifest.xml:12:13-48
	android:theme
		ADDED from D:\Semestre_2020-2021\DISPOSITIVOS_MOVILES\LIBRO\android-recipes-5ed\android-recipes-5ed-master\Chapter_01_Source_Code\1_01_StylesThemes\src\main\AndroidManifest.xml:11:13-44
	android:name
		ADDED from D:\Semestre_2020-2021\DISPOSITIVOS_MOVILES\LIBRO\android-recipes-5ed\android-recipes-5ed-master\Chapter_01_Source_Code\1_01_StylesThemes\src\main\AndroidManifest.xml:10:13-43
intent-filter#action:name:android.intent.action.MAIN+category:name:android.intent.category.LAUNCHER
ADDED from D:\Semestre_2020-2021\DISPOSITIVOS_MOVILES\LIBRO\android-recipes-5ed\android-recipes-5ed-master\Chapter_01_Source_Code\1_01_StylesThemes\src\main\AndroidManifest.xml:13:13-16:29
action#android.intent.action.MAIN
ADDED from D:\Semestre_2020-2021\DISPOSITIVOS_MOVILES\LIBRO\android-recipes-5ed\android-recipes-5ed-master\Chapter_01_Source_Code\1_01_StylesThemes\src\main\AndroidManifest.xml:14:17-68
	android:name
		ADDED from D:\Semestre_2020-2021\DISPOSITIVOS_MOVILES\LIBRO\android-recipes-5ed\android-recipes-5ed-master\Chapter_01_Source_Code\1_01_StylesThemes\src\main\AndroidManifest.xml:14:25-66
category#android.intent.category.LAUNCHER
ADDED from D:\Semestre_2020-2021\DISPOSITIVOS_MOVILES\LIBRO\android-recipes-5ed\android-recipes-5ed-master\Chapter_01_Source_Code\1_01_StylesThemes\src\main\AndroidManifest.xml:15:17-76
	android:name
		ADDED from D:\Semestre_2020-2021\DISPOSITIVOS_MOVILES\LIBRO\android-recipes-5ed\android-recipes-5ed-master\Chapter_01_Source_Code\1_01_StylesThemes\src\main\AndroidManifest.xml:15:27-74
activity#com.androidrecipes.appstyles.StylesActivity
ADDED from D:\Semestre_2020-2021\DISPOSITIVOS_MOVILES\LIBRO\android-recipes-5ed\android-recipes-5ed-master\Chapter_01_Source_Code\1_01_StylesThemes\src\main\AndroidManifest.xml:18:9-26:20
	android:label
		ADDED from D:\Semestre_2020-2021\DISPOSITIVOS_MOVILES\LIBRO\android-recipes-5ed\android-recipes-5ed-master\Chapter_01_Source_Code\1_01_StylesThemes\src\main\AndroidManifest.xml:21:13-48
	android:theme
		ADDED from D:\Semestre_2020-2021\DISPOSITIVOS_MOVILES\LIBRO\android-recipes-5ed\android-recipes-5ed-master\Chapter_01_Source_Code\1_01_StylesThemes\src\main\AndroidManifest.xml:20:13-71
	android:name
		ADDED from D:\Semestre_2020-2021\DISPOSITIVOS_MOVILES\LIBRO\android-recipes-5ed\android-recipes-5ed-master\Chapter_01_Source_Code\1_01_StylesThemes\src\main\AndroidManifest.xml:19:13-43
uses-sdk
INJECTED from D:\Semestre_2020-2021\DISPOSITIVOS_MOVILES\LIBRO\android-recipes-5ed\android-recipes-5ed-master\Chapter_01_Source_Code\1_01_StylesThemes\src\main\AndroidManifest.xml reason: use-sdk injection requested
INJECTED from D:\Semestre_2020-2021\DISPOSITIVOS_MOVILES\LIBRO\android-recipes-5ed\android-recipes-5ed-master\Chapter_01_Source_Code\1_01_StylesThemes\src\main\AndroidManifest.xml
INJECTED from D:\Semestre_2020-2021\DISPOSITIVOS_MOVILES\LIBRO\android-recipes-5ed\android-recipes-5ed-master\Chapter_01_Source_Code\1_01_StylesThemes\src\main\AndroidManifest.xml
MERGED from [com.android.support:appcompat-v7:23.4.0] C:\Users\joizn\.gradle\caches\transforms-2\files-2.1\fa1f2605c86b1af1a048c2cd97512538\appcompat-v7-23.4.0\AndroidManifest.xml:21:5-23:78
MERGED from [com.android.support:appcompat-v7:23.4.0] C:\Users\joizn\.gradle\caches\transforms-2\files-2.1\fa1f2605c86b1af1a048c2cd97512538\appcompat-v7-23.4.0\AndroidManifest.xml:21:5-23:78
MERGED from [com.android.support:animated-vector-drawable:23.4.0] C:\Users\joizn\.gradle\caches\transforms-2\files-2.1\d96fdf19e6dc3f48a62a9a96d28cb466\animated-vector-drawable-23.4.0\AndroidManifest.xml:5:5-44
MERGED from [com.android.support:animated-vector-drawable:23.4.0] C:\Users\joizn\.gradle\caches\transforms-2\files-2.1\d96fdf19e6dc3f48a62a9a96d28cb466\animated-vector-drawable-23.4.0\AndroidManifest.xml:5:5-44
MERGED from [com.android.support:support-vector-drawable:23.4.0] C:\Users\joizn\.gradle\caches\transforms-2\files-2.1\e4a8182bf213ec7e4da1d86f73f090ef\support-vector-drawable-23.4.0\AndroidManifest.xml:5:5-43
MERGED from [com.android.support:support-vector-drawable:23.4.0] C:\Users\joizn\.gradle\caches\transforms-2\files-2.1\e4a8182bf213ec7e4da1d86f73f090ef\support-vector-drawable-23.4.0\AndroidManifest.xml:5:5-43
MERGED from [com.android.support:support-v4:23.4.0] C:\Users\joizn\.gradle\caches\transforms-2\files-2.1\0b3b3a4719ee504265b601c9a4df68a1\support-v4-23.4.0\AndroidManifest.xml:20:5-43
MERGED from [com.android.support:support-v4:23.4.0] C:\Users\joizn\.gradle\caches\transforms-2\files-2.1\0b3b3a4719ee504265b601c9a4df68a1\support-v4-23.4.0\AndroidManifest.xml:20:5-43
INJECTED from D:\Semestre_2020-2021\DISPOSITIVOS_MOVILES\LIBRO\android-recipes-5ed\android-recipes-5ed-master\Chapter_01_Source_Code\1_01_StylesThemes\src\main\AndroidManifest.xml
INJECTED from D:\Semestre_2020-2021\DISPOSITIVOS_MOVILES\LIBRO\android-recipes-5ed\android-recipes-5ed-master\Chapter_01_Source_Code\1_01_StylesThemes\src\main\AndroidManifest.xml
	tools:overrideLibrary
		ADDED from [com.android.support:appcompat-v7:23.4.0] C:\Users\joizn\.gradle\caches\transforms-2\files-2.1\fa1f2605c86b1af1a048c2cd97512538\appcompat-v7-23.4.0\AndroidManifest.xml:23:9-75
	android:targetSdkVersion
		INJECTED from D:\Semestre_2020-2021\DISPOSITIVOS_MOVILES\LIBRO\android-recipes-5ed\android-recipes-5ed-master\Chapter_01_Source_Code\1_01_StylesThemes\src\main\AndroidManifest.xml
		ADDED from D:\Semestre_2020-2021\DISPOSITIVOS_MOVILES\LIBRO\android-recipes-5ed\android-recipes-5ed-master\Chapter_01_Source_Code\1_01_StylesThemes\src\main\AndroidManifest.xml
		INJECTED from D:\Semestre_2020-2021\DISPOSITIVOS_MOVILES\LIBRO\android-recipes-5ed\android-recipes-5ed-master\Chapter_01_Source_Code\1_01_StylesThemes\src\main\AndroidManifest.xml
	android:minSdkVersion
		INJECTED from D:\Semestre_2020-2021\DISPOSITIVOS_MOVILES\LIBRO\android-recipes-5ed\android-recipes-5ed-master\Chapter_01_Source_Code\1_01_StylesThemes\src\main\AndroidManifest.xml
		ADDED from D:\Semestre_2020-2021\DISPOSITIVOS_MOVILES\LIBRO\android-recipes-5ed\android-recipes-5ed-master\Chapter_01_Source_Code\1_01_StylesThemes\src\main\AndroidManifest.xml
		INJECTED from D:\Semestre_2020-2021\DISPOSITIVOS_MOVILES\LIBRO\android-recipes-5ed\android-recipes-5ed-master\Chapter_01_Source_Code\1_01_StylesThemes\src\main\AndroidManifest.xml
